<svg xmlns="http://www.w3.org/2000/svg" width="166" height="70" viewBox="0 0 166 70">
    <g fill="#FFF" fill-rule="evenodd" font-family="BraveSans-BoldItalic, Brave Sans" font-size="59.148" font-style="italic" font-weight="bold">
        <text>
            <tspan x="0" y="57">H</tspan>
        </text>
        <text>
            <tspan x="37.17" y="57">a</tspan>
        </text>
        <text>
            <tspan x="66.78" y="57">b</tspan>
        </text>
        <text>
            <tspan x="99.225" y="57">a</tspan>
        </text>
        <text>
            <tspan x="129.465" y="57">r</tspan>
        </text>
        <text>
            <tspan x="149.94" y="57">i</tspan>
        </text>
    </g>
</svg>
